[gd_scene load_steps=3 format=2]

[ext_resource path="res://Scripts/Main.gd" type="Script" id=2]
[ext_resource path="res://Scenes/Header.tscn" type="PackedScene" id=4]

[node name="Main" type="Control"]
anchor_right = 1.0
anchor_bottom = 1.0
mouse_filter = 2
script = ExtResource( 2 )
__meta__ = {
"_edit_use_anchors_": false
}
START_SCREEN = 2

[node name="Stack" type="Control" parent="."]
anchor_right = 1.0
anchor_bottom = 1.0
__meta__ = {
"_edit_use_anchors_": false
}

[node name="Header" parent="." instance=ExtResource( 4 )]

[node name="Tween" type="Tween" parent="."]
